com/example/techouse/Application.class
com/example/techouse/MainController$ErrorMessage.class
com/example/techouse/Product.class
com/example/techouse/MainController.class
com/example/techouse/ProductRepository.class
